[
    {
        "Date": "2019-08-19T00:00:00Z",
        "Temperature": 2.7,
        "Precipitation": 0.13,
        "WeatherSymbol": 4,
        "WeatherText": "Cloud"
    },
    {
        "Date": "2019-08-20T00:00:00Z",
        "Temperature": 3.8,
        "Precipitation": 0.9000000000000001,
        "WeatherSymbol": 5,
        "WeatherText": "Cloud"
    },
    {
        "Date": "2019-08-21T00:00:00Z",
        "Temperature": 3.8,
        "Precipitation": 0.9000000000000001,
        "WeatherSymbol": 6,
        "WeatherText": "Cloud"
    },
    {
        "Date": "2019-08-22T00:00:00Z",
        "Temperature": 3.8,
        "Precipitation": 0.9000000000000001,
        "WeatherSymbol": 25,
        "WeatherText": "Cloud"
    },
    {
        "Date": "2019-08-23T00:00:00Z",
        "Temperature": 3.8,
        "Precipitation": 0.9000000000000001,
        "WeatherSymbol": 34,
        "WeatherText": "Cloud"
    },
    {
        "Date": "2019-08-24T00:00:00Z",
        "Temperature": 3.8,
        "Precipitation": 0.9000000000000001,
        "WeatherSymbol": 1,
        "WeatherText": "Cloud"
    }
]